{
  "charts": [
    {
      "title": { "fr": "REPARTITION PAR EPCI" },
      "cols": 4,
      "unit": { "fr": "Structure(s)" },
      "aggregatebyfield": "EPCI_CORRE",
      "aggregationtype": "countitems",
      "chartOptions": {
        "chart": {
          "type": "donut",
          "width": "100%",
          "height": 500
        },
        "legend": {
          "position": "bottom"
        }
      }
    },
    {
      "title": { "fr": "REPARTITION PAR COMMUNE" },
      "cols": 12,
      "unit": { "fr": "Structure(s)" },
      "aggregatebyfield": "COM_NOM",
      "aggregationtype": "countitems",
      "chartOptions": {
        "chart": {
          "type": "treemap",
          "height": 500
        },
        "legend": {
          "show": false
        },
        "colors": [
          "#3B93A5",
          "#F7B844",
          "#ADD8C7",
          "#EC3C65",
          "#CDD7B6",
          "#C1F666",
          "#D43F97",
          "#1E5D8C",
          "#421243",
          "#EF6537",
          "#C0ADDB"
        ],
        "plotOptions": {
          "treemap": {
            "distributed": true,
            "enableShades": false
          }
        }
      }
    }
  ]
}
