{
  "fields": [
    {
      "name": "libelle_departement",
      "bgColor": "#D7D7D7",
      "subtype": "tag"
    },
    {
      "name": "code_departement",
      "subtype": "tag",
      "bgColor": "#D7D7D7",
      "definitions": [
        {
          "value": "02",
          "label" : "Aisne"
        },
        {
          "value": "13",
          "label" : "Bouches du Rhône"
        },
        {
          "value": "18",
          "label" : "Cher"
        },
        {
          "value": "25",
          "label" : "Doubs"
        },
        {
          "value": "29",
          "label" : "Finistère"
        },
        {
          "value": "2A",
          "label" : "Corse"
        },
        {
          "value": "34",
          "label" : "Hérault"
        },
        {
          "value": "38",
          "label" : "Isère"
        },
        {
          "value": "86",
          "label" : "Vienne"
        },
        {
          "value": "88",
          "label" : "Vosges"
        },
        {
          "value": "95",
          "label" : "Val d'Oise"
        },
        {
          "value": "971",
          "label" : "Guadeloupe"
        }
      ]
    },
    {
      "name": "code_commune_insee",
      "subtype": "tag",
      "bgColor": "#D7D7D7"
    },
    {
      "name": "brevet_mention_b_tb",
      "subtype": "percent",
      "round": {
        "digits": 2
      },
      "transform": {
        "multiplyBy": 100 
      }
    },
    {
      "name": "ips",
      "round": {
        "digits": 2
      }
    },
    {
      "name": "pix_score",
      "round": {
        "digits": 2
      }
    },
    {
      "name": "pix_taux_couverture",
      "subtype": "percent",
      "round": {
        "digits": 2
      },
      "transform": {
        "multiplyBy": 100 
      }
    },
    {
      "name": "ifn_tx_non_thd",
      "subtype": "percent",
      "round": {
        "digits": 2
      }
    },
    {
      "name": "ifn_dist_bibliotheque",
      "round": {
        "digits": 2
      }
    },
    {
      "name": "ifn_tx_fammono",
      "subtype": "percent",
      "round": {
        "digits": 2
      }
    },
    {
      "name": "ifn_tx_etrangers",
      "subtype": "percent",
      "round": {
        "digits": 2
      }
    },
    {
      "name": "ifn_computed_score",
      "round": {
        "digits": 3
      }
    },
    {
      "name": "commune_lat",
      "subtype": "geopoint"
    },
    {
      "name": "commune_lon",
      "subtype": "geopoint"
    },
    {
      "name": "BAN_latitude",
      "subtype": "geopoint"
    },
    {
      "name": "BAN_longitude",
      "subtype": "geopoint"
    }

  ]
}
