code_departement;brevet_mention_b_tb;ips;pix_score;pix_taux_couverture;ifn_tx_non_thd;ifn_dist_bibliotheque;ifn_tx_fammono;ifn_tx_etrangers;ifn_computed_score;code_commune_insee;libelle_departement
02;0.43;93.16;2.12;0.38;13.02;1.56;10.96;2.69;2.13;02830;AISNE
13;0.47;110.17;2.32;0.42;36.23;1.62;10.66;4.42;0.13;13216;BOUCHES-DU-RHONE
18;0.42;98.7;2.3;0.39;40.59;17.37;8.83;2.59;3.19;18279;CHER
25;0.49;101.92;2.27;0.39;27.8;1.46;8.97;4.53;-0.49;25632;DOUBS
29;0.59;106.12;2.28;0.43;62.54;1.56;7.93;1.81;0.4;29302;FINISTERE
2A;0.37;99.14;2.18;0.36;64.7;7.7;10.87;9.94;2.96;2A348;CORSE-DU-SUD
34;0.48;108.56;2.35;0.43;50.14;1.42;10.72;4.58;1.15;34344;HERAULT
38;0.48;112.39;2.31;0.38;51.59;1.04;9.51;5.81;-0.77;38565;ISERE
86;0.47;102.56;2.28;0.4;60.13;1.39;8.51;2.77;1.51;86298;VIENNE
88;0.48;98.08;2.21;0.46;61.63;1.7;10.2;3.53;2.55;88530;VOSGES
95;0.42;109.88;2.23;0.46;10.56;0.77;11.79;10.72;-1.57;95680;VAL-D'OISE
971;0.35;88.85;1.93;0.45;0;0;22.8;4.19;4.72;97801;GUADELOUPE
